x
1 2012-10-18
2 2012-11-04
3 2012-11-15
4 2012-11-22
5 2012-11-24
6 2012-11-26
7 2012-12-13
8 2012-12-18
9 2012-12-22
10 2012-12-24
11 2012-12-25
12 2012-12-27
13 2012-12-29
14 2012-12-30
15 2012-12-31
16 2013-01-02
17 2013-01-04
18 2013-01-05
19 2013-01-13
20 2013-01-16
21 2013-01-17
22 2013-01-18
23 2013-01-19
24 2013-01-29
25 2013-02-07
26 2013-02-08
27 2013-03-10
28 2013-03-18
29 2013-03-19
30 2013-03-20
31 2013-03-21
32 2013-03-22
33 2013-03-23
34 2013-03-24
35 2013-03-25
36 2013-03-26
37 2013-03-27
38 2013-03-28
39 2013-04-23
40 2013-04-24
41 2013-04-25
42 2013-04-26
43 2013-04-27
44 2013-04-28
45 2013-12-04
46 2013-12-05
47 2013-12-06
48 2013-12-07
49 2014-01-18
50 2014-02-04
